# example of `top ibn1` output from Cori node running 64 DayaBay jobs, September 2016
top - 22:18:53 up 10 days,  7:29,  0 users,  load average: 63.83, 63.83, 63.89
Tasks: 1073 total,  64 running, 1009 sleeping,   0 stopped,   0 zombie
Cpu(s): 55.8%us,  2.9%sy,  0.0%ni, 41.2%id,  0.0%wa,  0.0%hi,  0.0%si,  0.0%st
Mem:  132163956k total, 130849212k used,  1314744k free,  3493980k buffers
Swap:        0k total,        0k used,        0k free, 33464176k cached

  PID USER      PR  NI  VIRT  RES  SHR S %CPU %MEM    TIME+  COMMAND
35062 balewski  20   0 2044m 1.4g  79m R 100.0  1.1  54:35.62 python
22775 balewski  20   0 2109m 1.4g  79m R 100.0  1.1 240:55.30 python
22787 balewski  20   0 2106m 1.4g  79m R 100.0  1.1 240:54.12 python
22825 balewski  20   0 2112m 1.4g  79m R 100.0  1.1 240:52.57 python
23739 balewski  20   0 2115m 1.4g  79m R 100.0  1.1 240:55.18 python
23774 balewski  20   0 2116m 1.4g  79m R 100.0  1.1 240:47.49 python
24870 balewski  20   0 2087m 1.4g  79m R 100.0  1.1 235:58.48 python
27239 balewski  20   0 2016m 1.3g  79m R 100.0  1.1 198:30.99 python
32380 balewski  20   0 2124m 1.5g  79m R 100.0  1.2 105:26.02 python
36017 balewski  20   0 2044m 1.4g  79m R 100.0  1.1  54:15.17 python
37923 balewski  20   0 2045m 1.4g  79m R 100.0  1.1  53:25.73 python
37940 balewski  20   0 2044m 1.4g  79m R 100.0  1.1  53:24.34 python
39869 balewski  20   0 2046m 1.4g  79m R 100.0  1.1  51:38.43 python
41171 balewski  20   0 1808m 1.2g  79m R 100.0  0.9  42:54.36 python
42340 balewski  20   0 1788m 1.2g  79m R 100.0  0.9  35:52.11 python
43305 balewski  20   0 1788m 1.2g  79m R 100.0  0.9  35:34.52 python
44288 balewski  20   0 1788m 1.2g  79m R 100.0  0.9  34:30.71 python
45269 balewski  20   0 1787m 1.2g  79m R 100.0  0.9  33:32.21 python
47305 balewski  20   0 1803m 1.2g  79m R 100.0  0.9  29:15.08 python
47327 balewski  20   0 1804m 1.2g  79m R 100.0  0.9  28:58.52 python
48379 balewski  20   0 1783m 1.1g  79m R 100.0  0.9  26:08.60 python
49335 balewski  20   0 1783m 1.1g  79m R 100.0  0.9  25:39.04 python
50303 balewski  20   0 1782m 1.1g  79m R 100.0  0.9  24:53.67 python
51813 balewski  20   0 1762m 1.1g  79m R 100.0  0.9   7:51.90 python
52988 balewski  20   0 2674m 1.9g  42m R 100.0  1.5 266:47.43 python
53276 balewski  20   0 1759m 1.1g  79m R 100.0  0.9   6:46.99 python
53741 balewski  20   0 1762m 1.1g  79m R 100.0  0.9   6:41.92 python
54216 balewski  20   0 2602m 1.9g  76m R 100.0  1.5 257:36.98 python
55216 balewski  20   0 2597m 1.9g  34m R 100.0  1.5 257:06.29 python
55629 balewski  20   0 1753m 1.1g  79m R 100.0  0.9   6:12.05 python
55651 balewski  20   0 1733m 1.1g  79m R 100.0  0.9   6:06.24 python
56650 balewski  20   0 1734m 1.1g  79m R 100.0  0.9   4:28.45 python
57633 balewski  20   0 2151m 1.4g  16m R 100.0  1.1 255:19.42 python
57661 balewski  20   0 1909m 1.3g  79m R 100.0  1.0   3:35.47 python
58098 balewski  20   0 2186m 1.5g  69m R 100.0  1.2 255:11.62 python
58651 balewski  20   0 1908m 1.3g  79m R 100.0  1.0   3:01.86 python
59666 balewski  20   0 1562m 994m  76m R 100.0  0.8   1:13.76 python
61929 balewski  20   0 2157m 1.4g  39m R 100.0  1.1 253:44.66 python
62846 balewski  20   0 2180m 1.4g  14m R 100.0  1.1 253:52.58 python
63465 balewski  20   0 2152m 1.4g  60m R 100.0  1.1 253:43.91 python
63754 balewski  20   0 2151m 1.4g  70m R 100.0  1.1 253:44.38 python
63788 balewski  20   0 2179m 1.4g  50m R 100.0  1.1 253:37.33 python
63840 balewski  20   0 2155m 1.4g  70m R 100.0  1.1 253:50.83 python
 2351 balewski  20   0 2179m 1.4g  63m R 99.1  1.1 253:12.62 python
 2370 balewski  20   0 2151m 1.4g  49m R 99.1  1.1 253:15.45 python
 2382 balewski  20   0 2181m 1.4g  27m R 99.1  1.1 253:06.21 python
 5232 balewski  20   0 2148m 1.4g  23m R 99.1  1.1 252:37.82 python
 7140 balewski  20   0 2538m 1.9g  75m R 99.1  1.5 252:27.54 python
 7152 balewski  20   0 2529m 1.9g  75m R 99.1  1.5 252:16.44 python
15167 balewski  20   0 2110m 1.4g  44m R 99.1  1.1 242:13.48 python
16025 balewski  20   0 2520m 1.8g  39m R 99.1  1.5 242:13.91 python
16037 balewski  20   0 2494m 1.8g  58m R 99.1  1.4 242:18.84 python
16703 balewski  20   0 2114m 1.4g  23m R 99.1  1.1 241:42.49 python
17899 balewski  20   0 2113m 1.4g  63m R 99.1  1.1 241:31.24 python
20039 balewski  20   0 2087m 1.4g  79m R 99.1  1.1 241:15.34 python
 2404 balewski  20   0 2150m 1.4g  52m R 97.2  1.1 253:07.27 python
 3368 balewski  20   0 2153m 1.4g  15m R 97.2  1.1 252:46.73 python
 5252 balewski  20   0 2535m 1.9g  69m R 97.2  1.5 253:04.28 python
12258 balewski  20   0 2522m 1.8g  49m R 97.2  1.5 242:32.14 python
18337 balewski  20   0 2088m 1.4g  50m R 97.2  1.1 241:19.44 python
39896 balewski  20   0 2046m 1.4g  79m R 97.2  1.1  51:30.28 python
31080 balewski  20   0 2150m 1.5g  79m R 93.5  1.2 114:55.52 python
56229 balewski  20   0 2182m 1.4g  14m R 93.5  1.1 255:41.48 python
